%!PS-Adobe-3.0 EPSF-3.0
%%Creator: MATLAB, The Mathworks, Inc. Version 7.8.0.347 (R2009a). Operating System: Microsoft Windows Vista.
%%Title: D:\dropbox\Dropbox\UEA\colour_constancy\myrepo\greyball195-205.eps
%%CreationDate: 01/31/2014  22:52:15
%%DocumentNeededFonts: Helvetica
%%DocumentProcessColors: Cyan Magenta Yellow Black
%%LanguageLevel: 2
%%Pages: 1
%%BoundingBox:    96   238   515   553
%%EndComments

%%BeginProlog
% MathWorks dictionary
/MathWorks 160 dict begin
% definition operators
/bdef {bind def} bind def
/ldef {load def} bind def
/xdef {exch def} bdef
/xstore {exch store} bdef
% operator abbreviations
/c  /clip ldef
/cc /concat ldef
/cp /closepath ldef
/gr /grestore ldef
/gs /gsave ldef
/mt /moveto ldef
/np /newpath ldef
/cm /currentmatrix ldef
/sm /setmatrix ldef
/rm /rmoveto ldef
/rl /rlineto ldef
/s {show newpath} bdef
/sc {setcmykcolor} bdef
/sr /setrgbcolor ldef
/sg /setgray ldef
/w /setlinewidth ldef
/j /setlinejoin ldef
/cap /setlinecap ldef
/rc {rectclip} bdef
/rf {rectfill} bdef
% page state control
/pgsv () def
/bpage {/pgsv save def} bdef
/epage {pgsv restore} bdef
/bplot /gsave ldef
/eplot {stroke grestore} bdef
% orientation switch
/portraitMode 0 def /landscapeMode 1 def /rotateMode 2 def
% coordinate system mappings
/dpi2point 0 def
% font control
/FontSize 0 def
/FMS {/FontSize xstore findfont [FontSize 0 0 FontSize neg 0 0]
  makefont setfont} bdef
/ISOLatin1Encoding where {pop /WindowsLatin1Encoding 256 array bdef
ISOLatin1Encoding WindowsLatin1Encoding copy pop
/.notdef/.notdef/quotesinglbase/florin/quotedblbase/ellipsis/dagger
/daggerdbl/circumflex/perthousand/Scaron/guilsinglleft/OE/.notdef/.notdef
/.notdef/.notdef/quoteleft/quoteright/quotedblleft/quotedblright/bullet
/endash/emdash/tilde/trademark/scaron/guilsinglright/oe/.notdef/.notdef
/Ydieresis WindowsLatin1Encoding 128 32 getinterval astore pop}
{/WindowsLatin1Encoding StandardEncoding bdef} ifelse
/reencode {exch dup where {pop load} {pop StandardEncoding} ifelse
  exch dup 3 1 roll findfont dup length dict begin
  { 1 index /FID ne {def}{pop pop} ifelse } forall
  /Encoding exch def currentdict end definefont pop} bdef
/isroman {findfont /CharStrings get /Agrave known} bdef
/FMSR {3 1 roll 1 index dup isroman {reencode} {pop pop} ifelse
  exch FMS} bdef
/csm {1 dpi2point div -1 dpi2point div scale neg translate
 dup landscapeMode eq {pop -90 rotate}
  {rotateMode eq {90 rotate} if} ifelse} bdef
% line types: solid, dotted, dashed, dotdash
/SO { [] 0 setdash } bdef
/DO { [.5 dpi2point mul 4 dpi2point mul] 0 setdash } bdef
/DA { [6 dpi2point mul] 0 setdash } bdef
/DD { [.5 dpi2point mul 4 dpi2point mul 6 dpi2point mul 4
  dpi2point mul] 0 setdash } bdef
% macros for lines and objects
/L {lineto stroke} bdef
/MP {3 1 roll moveto 1 sub {rlineto} repeat} bdef
/AP {{rlineto} repeat} bdef
/PDlw -1 def
/W {/PDlw currentlinewidth def setlinewidth} def
/PP {closepath eofill} bdef
/DP {closepath stroke} bdef
/MR {4 -2 roll moveto dup  0 exch rlineto exch 0 rlineto
  neg 0 exch rlineto closepath} bdef
/FR {MR stroke} bdef
/PR {MR fill} bdef
/L1i {{currentfile picstr readhexstring pop} image} bdef
/tMatrix matrix def
/MakeOval {newpath tMatrix currentmatrix pop translate scale
0 0 1 0 360 arc tMatrix setmatrix} bdef
/FO {MakeOval stroke} bdef
/PO {MakeOval fill} bdef
/PD {currentlinewidth 2 div 0 360 arc fill
   PDlw -1 eq not {PDlw w /PDlw -1 def} if} def
/FA {newpath tMatrix currentmatrix pop translate scale
  0 0 1 5 -2 roll arc tMatrix setmatrix stroke} bdef
/PA {newpath tMatrix currentmatrix pop	translate 0 0 moveto scale
  0 0 1 5 -2 roll arc closepath tMatrix setmatrix fill} bdef
/FAn {newpath tMatrix currentmatrix pop translate scale
  0 0 1 5 -2 roll arcn tMatrix setmatrix stroke} bdef
/PAn {newpath tMatrix currentmatrix pop translate 0 0 moveto scale
  0 0 1 5 -2 roll arcn closepath tMatrix setmatrix fill} bdef
/vradius 0 def /hradius 0 def /lry 0 def
/lrx 0 def /uly 0 def /ulx 0 def /rad 0 def
/MRR {/vradius xdef /hradius xdef /lry xdef /lrx xdef /uly xdef
  /ulx xdef newpath tMatrix currentmatrix pop ulx hradius add uly
  vradius add translate hradius vradius scale 0 0 1 180 270 arc 
  tMatrix setmatrix lrx hradius sub uly vradius add translate
  hradius vradius scale 0 0 1 270 360 arc tMatrix setmatrix
  lrx hradius sub lry vradius sub translate hradius vradius scale
  0 0 1 0 90 arc tMatrix setmatrix ulx hradius add lry vradius sub
  translate hradius vradius scale 0 0 1 90 180 arc tMatrix setmatrix
  closepath} bdef
/FRR {MRR stroke } bdef
/PRR {MRR fill } bdef
/MlrRR {/lry xdef /lrx xdef /uly xdef /ulx xdef /rad lry uly sub 2 div def
  newpath tMatrix currentmatrix pop ulx rad add uly rad add translate
  rad rad scale 0 0 1 90 270 arc tMatrix setmatrix lrx rad sub lry rad
  sub translate rad rad scale 0 0 1 270 90 arc tMatrix setmatrix
  closepath} bdef
/FlrRR {MlrRR stroke } bdef
/PlrRR {MlrRR fill } bdef
/MtbRR {/lry xdef /lrx xdef /uly xdef /ulx xdef /rad lrx ulx sub 2 div def
  newpath tMatrix currentmatrix pop ulx rad add uly rad add translate
  rad rad scale 0 0 1 180 360 arc tMatrix setmatrix lrx rad sub lry rad
  sub translate rad rad scale 0 0 1 0 180 arc tMatrix setmatrix
  closepath} bdef
/FtbRR {MtbRR stroke } bdef
/PtbRR {MtbRR fill } bdef
/stri 6 array def /dtri 6 array def
/smat 6 array def /dmat 6 array def
/tmat1 6 array def /tmat2 6 array def /dif 3 array def
/asub {/ind2 exch def /ind1 exch def dup dup
  ind1 get exch ind2 get sub exch } bdef
/tri_to_matrix {
  2 0 asub 3 1 asub 4 0 asub 5 1 asub
  dup 0 get exch 1 get 7 -1 roll astore } bdef
/compute_transform {
  dmat dtri tri_to_matrix tmat1 invertmatrix 
  smat stri tri_to_matrix tmat2 concatmatrix } bdef
/ds {stri astore pop} bdef
/dt {dtri astore pop} bdef
/db {2 copy /cols xdef /rows xdef mul dup 3 mul string
  currentfile 
  3 index 0 eq {/ASCIIHexDecode filter}
  {/ASCII85Decode filter 3 index 2 eq {/RunLengthDecode filter} if }
  ifelse exch readstring pop
  dup 0 3 index getinterval /rbmap xdef
  dup 2 index dup getinterval /gbmap xdef
  1 index dup 2 mul exch getinterval /bbmap xdef pop pop}bdef
/it {gs np dtri aload pop moveto lineto lineto cp c
  cols rows 8 compute_transform 
  rbmap gbmap bbmap true 3 colorimage gr}bdef
/il {newpath moveto lineto stroke}bdef
currentdict end def
%%EndProlog

%%BeginSetup
MathWorks begin

0 cap

end
%%EndSetup

%%Page: 1 1
%%BeginPageSetup
%%PageBoundingBox:    96   238   515   553
MathWorks begin
bpage
%%EndPageSetup

%%BeginObject: obj1
bplot

/dpi2point 12 def
portraitMode 1152 6636 csm

    0     0  5039  3780 rc
85 dict begin %Colortable dictionary
/c0 { 0.000000 0.000000 0.000000 sr} bdef
/c1 { 1.000000 1.000000 1.000000 sr} bdef
/c2 { 0.900000 0.000000 0.000000 sr} bdef
/c3 { 0.000000 0.820000 0.000000 sr} bdef
/c4 { 0.000000 0.000000 0.800000 sr} bdef
/c5 { 0.910000 0.820000 0.320000 sr} bdef
/c6 { 1.000000 0.260000 0.820000 sr} bdef
/c7 { 0.000000 0.820000 0.820000 sr} bdef
c0
1 j
1 sg
   0    0 5040 3781 rf
6 w
0 3081 3906 0 0 -3081 654 3364 4 MP
PP
-3906 0 0 3081 3906 0 0 -3081 654 3364 5 MP stroke
4 w
DO
SO
6 w
0 sg
 654 3364 mt 4560 3364 L
 654 3364 mt  654  283 L
 654 3364 mt  654 3324 L
%%IncludeResource: font Helvetica
/Helvetica /WindowsLatin1Encoding 120 FMSR

 621 3509 mt 
(0) s
1956 3364 mt 1956 3324 L
1923 3509 mt 
(1) s
3258 3364 mt 3258 3324 L
3225 3509 mt 
(2) s
4560 3364 mt 4560 3324 L
4527 3509 mt 
(3) s
 654 3364 mt  694 3364 L
 554 3408 mt 
(0) s
 654 2923 mt  694 2923 L
 554 2967 mt 
(2) s
 654 2483 mt  694 2483 L
 554 2527 mt 
(4) s
 654 2043 mt  694 2043 L
 554 2087 mt 
(6) s
 654 1603 mt  694 1603 L
 554 1647 mt 
(8) s
 654 1163 mt  694 1163 L
 487 1207 mt 
(10) s
 654  723 mt  694  723 L
 487  767 mt 
(12) s
 654  283 mt  694  283 L
 487  327 mt 
(14) s
gs 655 283 3906 3082 rc
0 j
gr

/c8 { 1.000000 0.000000 0.000000 sr} bdef
c8
1920 2923 mt 1992 2923 L
1956 2887 mt 1956 2959 L
1931 2898 mt 1981 2948 L
1981 2898 mt 1931 2948 L
gs 655 283 3906 3082 rc
0 j
gr

1920 2703 mt 1992 2703 L
1956 2667 mt 1956 2739 L
1931 2678 mt 1981 2728 L
1981 2678 mt 1931 2728 L
gs 655 283 3906 3082 rc
0 j
gr

1920 2483 mt 1992 2483 L
1956 2447 mt 1956 2519 L
1931 2458 mt 1981 2508 L
1981 2458 mt 1931 2508 L
gs 655 283 3906 3082 rc
0 j
gr

1920 2263 mt 1992 2263 L
1956 2227 mt 1956 2299 L
1931 2238 mt 1981 2288 L
1981 2238 mt 1931 2288 L
gs 655 283 3906 3082 rc
0 j
gr

1920 2043 mt 1992 2043 L
1956 2007 mt 1956 2079 L
1931 2018 mt 1981 2068 L
1981 2018 mt 1931 2068 L
gs 655 283 3906 3082 rc
0 j
gr

1920 1823 mt 1992 1823 L
1956 1787 mt 1956 1859 L
1931 1798 mt 1981 1848 L
1981 1798 mt 1931 1848 L
gs 655 283 3906 3082 rc
0 j
gr

1920 1603 mt 1992 1603 L
1956 1567 mt 1956 1639 L
1931 1578 mt 1981 1628 L
1981 1578 mt 1931 1628 L
gs 655 283 3906 3082 rc
0 j
gr

1920 1383 mt 1992 1383 L
1956 1347 mt 1956 1419 L
1931 1358 mt 1981 1408 L
1981 1358 mt 1931 1408 L
gs 655 283 3906 3082 rc
0 j
gr

1920 1163 mt 1992 1163 L
1956 1127 mt 1956 1199 L
1931 1138 mt 1981 1188 L
1981 1138 mt 1931 1188 L
gs 655 283 3906 3082 rc
0 j
gr

1920  943 mt 1992  943 L
1956  907 mt 1956  979 L
1931  918 mt 1981  968 L
1981  918 mt 1931  968 L
gs 655 283 3906 3082 rc
0 j
gr

1920  723 mt 1992  723 L
1956  687 mt 1956  759 L
1931  698 mt 1981  748 L
1981  698 mt 1931  748 L
gs 655 283 3906 3082 rc
0 j
gr

1920 3143 mt 1992 3143 L
1956 3107 mt 1956 3179 L
1931 3118 mt 1981 3168 L
1981 3118 mt 1931 3168 L
gs 655 283 3906 3082 rc
0 j
gr

1920  503 mt 1992  503 L
1956  467 mt 1956  539 L
1931  478 mt 1981  528 L
1981  478 mt 1931  528 L
gs 655 283 3906 3082 rc
gr

0 sg
1175 2965 mt 
(GEdge2,15,2) s
1175 2745 mt 
(GEdge2,9,6) s
1175 2525 mt 
(Gwolrd12,4) s
1175 2305 mt 
(GEdge2,10,9) s
1175 2085 mt 
(GEdge2,9,10) s
1175 1865 mt 
(GEdge1,9,2) s
1175 1645 mt 
(Gamutinter1,1) s
1175 1425 mt 
(GEdge2,11,3) s
1175 1205 mt 
(GEdge1,1,11) s
1175  985 mt 
(Gamutinter1,2) s
1175  765 mt 
(Gamutinter3,1) s
1175 3185 mt 
(MaxRGB) s
1175  545 mt 
(Grey-world) s
gs 655 283 3906 3082 rc
0 j
gr

/c9 { 0.000000 0.000000 1.000000 sr} bdef
c9
3222  723 mt 3294  723 L
3258  687 mt 3258  759 L
3233  698 mt 3283  748 L
3283  698 mt 3233  748 L
gs 655 283 3906 3082 rc
0 j
gr

3222 1823 mt 3294 1823 L
3258 1787 mt 3258 1859 L
3233 1798 mt 3283 1848 L
3283 1798 mt 3233 1848 L
gs 655 283 3906 3082 rc
0 j
gr

3222 2923 mt 3294 2923 L
3258 2887 mt 3258 2959 L
3233 2898 mt 3283 2948 L
3283 2898 mt 3233 2948 L
gs 655 283 3906 3082 rc
0 j
gr

3222 1163 mt 3294 1163 L
3258 1127 mt 3258 1199 L
3233 1138 mt 3283 1188 L
3283 1138 mt 3233 1188 L
gs 655 283 3906 3082 rc
0 j
gr

3222 1603 mt 3294 1603 L
3258 1567 mt 3258 1639 L
3233 1578 mt 3283 1628 L
3283 1578 mt 3233 1628 L
gs 655 283 3906 3082 rc
0 j
gr

3222  943 mt 3294  943 L
3258  907 mt 3258  979 L
3233  918 mt 3283  968 L
3283  918 mt 3233  968 L
gs 655 283 3906 3082 rc
0 j
gr

3222 2483 mt 3294 2483 L
3258 2447 mt 3258 2519 L
3233 2458 mt 3283 2508 L
3283 2458 mt 3233 2508 L
gs 655 283 3906 3082 rc
0 j
gr

3222 1383 mt 3294 1383 L
3258 1347 mt 3258 1419 L
3233 1358 mt 3283 1408 L
3283 1358 mt 3233 1408 L
gs 655 283 3906 3082 rc
0 j
gr

3222 2703 mt 3294 2703 L
3258 2667 mt 3258 2739 L
3233 2678 mt 3283 2728 L
3283 2678 mt 3233 2728 L
gs 655 283 3906 3082 rc
0 j
gr

3222 2263 mt 3294 2263 L
3258 2227 mt 3258 2299 L
3233 2238 mt 3283 2288 L
3283 2238 mt 3233 2288 L
gs 655 283 3906 3082 rc
0 j
gr

3222 2043 mt 3294 2043 L
3258 2007 mt 3258 2079 L
3233 2018 mt 3283 2068 L
3283 2018 mt 3233 2068 L
gs 655 283 3906 3082 rc
0 j
gr

3222 3143 mt 3294 3143 L
3258 3107 mt 3258 3179 L
3233 3118 mt 3283 3168 L
3283 3118 mt 3233 3168 L
gs 655 283 3906 3082 rc
0 j
gr

3222  503 mt 3294  503 L
3258  467 mt 3258  539 L
3233  478 mt 3283  528 L
3283  478 mt 3233  528 L
gs 655 283 3906 3082 rc
gr

0 sg
3388  765 mt 
(GEdge2,15,2) s
3388 1865 mt 
(GEdge2,9,6) s
3388 2965 mt 
(Gwolrd12,4) s
3388 1205 mt 
(GEdge2,10,9) s
3388 1645 mt 
(GEdge2,9,10) s
3388  985 mt 
(GEdge1,9,2) s
3388 2525 mt 
(Gamutinter1,1) s
3388 1425 mt 
(GEdge2,11,3) s
3388 2745 mt 
(GEdge1,1,11) s
3388 2305 mt 
(Gamutinter1,2) s
3388 2085 mt 
(Gamutinter3,1) s
3388 3185 mt 
(MaxRGB) s
3388  545 mt 
(Grey-world) s
gs 655 283 3906 3082 rc
c9
1302 -2200 1956 2923 2 MP stroke
1302 -880 1956 2703 2 MP stroke
1302 440 1956 2483 2 MP stroke
1302 -1100 1956 2263 2 MP stroke
1302 -440 1956 2043 2 MP stroke
1302 -880 1956 1823 2 MP stroke
1302 880 1956 1603 2 MP stroke
1302 0 1956 1383 2 MP stroke
1302 1540 1956 1163 2 MP stroke
1302 1320 1956 943 2 MP stroke
1302 1320 1956 723 2 MP stroke
1302 0 1956 3143 2 MP stroke
1302 0 1956 503 2 MP stroke
gr

c9

end %%Color Dict

eplot
%%EndObject

epage
end

showpage

%%Trailer
%%EOF
